{
  "version": "1",
  "target": "vsCode",
  "buildSystem": "arduino",
  "debugSupport": "cortex_debug",
  "configurations": [
    {
      "name": "default",
      "guid": "3ce6852c-b2bb-4a5c-9874-4ca963c7c315",
      "setupType": "expert",
      "coreBase": "W:\\msys64\\opt\\arduino-1.8.13\\hardware\\eicon\\NXP",
      "compilerBase": "W:\\msys64\\opt\\arduino-1.8.13\\hardware\\tools\\arm",
      "makefileExtension": null,
      "copyCore": true,
      "sharedLibraries": [],
      "projectLibraries": [],
      "board": {
        "name": "DGPreamp MK22FX512VLH12",
        "options": {
          "USB Type": "Serial",
          "CPU Speed": "120 MHz (overclock)",
          "Optimize": "Faster",
          "Keyboard Layout": "US English"
        }
      }
    }
  ]
}